\relax 
\providecommand\hyper@newdestlabel[2]{}
\citation{if2}
\citation{if2}
\citation{if1}
\citation{meshmold}
\@writefile{toc}{\contentsline {chapter}{\numberline {1}Introduction}{1}{chapter.1}}
\@writefile{lof}{\addvspace {10\p@ }}
\@writefile{lot}{\addvspace {10\p@ }}
\@writefile{toc}{\contentsline {section}{\numberline {1.1}Problem statement}{1}{section.1.1}}
\newlabel{sec:problem}{{1.1}{1}{Problem statement}{section.1.1}{}}
\providecommand*\caption@xref[2]{\@setref\relax\@undefined{#1}}
\newlabel{fig:sub1}{{1.1a}{1}{base, arm and end effector\relax }{figure.caption.9}{}}
\newlabel{sub@fig:sub1}{{a}{1}{base, arm and end effector\relax }{figure.caption.9}{}}
\newlabel{fig:sub2}{{1.1b}{1}{end effector and mesh mold (source\footnotemark [3])\relax }{figure.caption.9}{}}
\newlabel{sub@fig:sub2}{{b}{1}{end effector and mesh mold (source\footnotemark [3])\relax }{figure.caption.9}{}}
\@writefile{lof}{\contentsline {figure}{\numberline {1.1}{\ignorespaces The \acrshort {if} and the mesh mold\relax }}{1}{figure.caption.9}}
\newlabel{fig:test}{{1.1}{1}{The \acrshort {if} and the mesh mold\relax }{figure.caption.9}{}}
\@writefile{toc}{\contentsline {section}{\numberline {1.2}System overview}{2}{section.1.2}}
\@writefile{lof}{\contentsline {figure}{\numberline {1.2}{\ignorespaces The system components of the \acrshort {if} distinguishing between parts that exists and parts that still have to be developed.\relax }}{2}{figure.caption.10}}
\newlabel{fig:sysoverview}{{1.2}{2}{The system components of the \acrshort {if} distinguishing between parts that exists and parts that still have to be developed.\relax }{figure.caption.10}{}}
\@writefile{toc}{\contentsline {section}{\numberline {1.3}Goal}{3}{section.1.3}}
\@writefile{lof}{\contentsline {figure}{\numberline {1.3}{\ignorespaces \acrshort {if} building mesh mold step by step. Before every base repositioning the arm has to be pulled in and reattached afterwards to continue building. \relax }}{3}{figure.caption.11}}
\newlabel{fig:build}{{1.3}{3}{\acrshort {if} building mesh mold step by step. Before every base repositioning the arm has to be pulled in and reattached afterwards to continue building. \relax }{figure.caption.11}{}}
\@writefile{toc}{\contentsline {section}{\numberline {1.4}Thesis structure}{4}{section.1.4}}
\@setckpt{chapters/Introduction}{
\setcounter{page}{5}
\setcounter{equation}{0}
\setcounter{enumi}{0}
\setcounter{enumii}{0}
\setcounter{enumiii}{0}
\setcounter{enumiv}{0}
\setcounter{footnote}{0}
\setcounter{mpfootnote}{0}
\setcounter{part}{0}
\setcounter{chapter}{1}
\setcounter{section}{4}
\setcounter{subsection}{0}
\setcounter{subsubsection}{0}
\setcounter{paragraph}{0}
\setcounter{subparagraph}{0}
\setcounter{figure}{3}
\setcounter{table}{0}
\setcounter{Item}{0}
\setcounter{Hfootnote}{0}
\setcounter{bookmark@seq@number}{8}
\setcounter{parentequation}{0}
\setcounter{ContinuedFloat}{0}
\setcounter{AM@survey}{0}
\setcounter{subfigure}{0}
\setcounter{subtable}{0}
\setcounter{r@tfl@t}{0}
\setcounter{ALC@unique}{0}
\setcounter{ALC@line}{0}
\setcounter{ALC@rem}{0}
\setcounter{ALC@depth}{0}
\setcounter{su@anzahl}{0}
\setcounter{LT@tables}{0}
\setcounter{LT@chunks}{0}
\setcounter{section@level}{1}
}
