\relax 
\providecommand\hyper@newdestlabel[2]{}
\citation{lampart}
\citation{batchest}
\@writefile{toc}{\contentsline {chapter}{\numberline {2}Robot pose estimation}{5}{chapter.2}}
\@writefile{lof}{\addvspace {10\p@ }}
\@writefile{lot}{\addvspace {10\p@ }}
\newlabel{ch:est}{{2}{5}{Robot pose estimation}{chapter.2}{}}
\@writefile{toc}{\contentsline {section}{\numberline {2.1}Notation}{5}{section.2.1}}
\newlabel{sec:notations}{{2.1}{5}{Notation}{section.2.1}{}}
\@writefile{lot}{\contentsline {table}{\numberline {2.1}{\ignorespaces Notation used for the robot pose estimation}}{5}{table.caption.12}}
\newlabel{tab:notations}{{2.1}{5}{Notation used for the robot pose estimation}{table.caption.12}{}}
\citation{rcars}
\@writefile{toc}{\contentsline {section}{\numberline {2.2}Batch estimation using APRIL tags}{6}{section.2.2}}
\@writefile{toc}{\contentsline {subsection}{\numberline {2.2.1}Optimization problem using tag poses}{6}{subsection.2.2.1}}
\newlabel{sec:poses}{{2.2.1}{6}{Optimization problem using tag poses}{subsection.2.2.1}{}}
\@writefile{lof}{\contentsline {figure}{\numberline {2.1}{\ignorespaces Swiping around with the camera measuring the pose of tags from different poses\relax }}{6}{figure.caption.13}}
\newlabel{fig:poses}{{2.1}{6}{Swiping around with the camera measuring the pose of tags from different poses\relax }{figure.caption.13}{}}
\newlabel{eq:poses}{{2.2}{7}{Optimization problem using tag poses}{equation.2.2.2}{}}
\@writefile{toc}{\contentsline {subsection}{\numberline {2.2.2}Optimization problem using tag corners}{8}{subsection.2.2.2}}
\newlabel{sec:corn}{{2.2.2}{8}{Optimization problem using tag corners}{subsection.2.2.2}{}}
\@writefile{lof}{\contentsline {figure}{\numberline {2.2}{\ignorespaces Swiping around with one camera measuring pixel coordinates of tag corners from different poses\relax }}{8}{figure.caption.14}}
\newlabel{fig:corners}{{2.2}{8}{Swiping around with one camera measuring pixel coordinates of tag corners from different poses\relax }{figure.caption.14}{}}
\@writefile{lof}{\contentsline {figure}{\numberline {2.3}{\ignorespaces Definition of a coordinate frame lying the in middle of the tag\relax }}{8}{figure.caption.15}}
\newlabel{fig:tagcf}{{2.3}{8}{Definition of a coordinate frame lying the in middle of the tag\relax }{figure.caption.15}{}}
\newlabel{eq:corncf}{{2.3}{9}{Optimization problem using tag corners}{equation.2.2.3}{}}
\newlabel{eq:proj}{{2.4}{9}{Optimization problem using tag corners}{equation.2.2.4}{}}
\newlabel{eq:optparam}{{2.5}{9}{Optimization problem using tag corners}{equation.2.2.5}{}}
\newlabel{eq:corners}{{2.6}{9}{Optimization problem using tag corners}{equation.2.2.6}{}}
\@writefile{toc}{\contentsline {subsection}{\numberline {2.2.3}Comparison}{9}{subsection.2.2.3}}
\citation{rcars}
\@writefile{lof}{\contentsline {figure}{\numberline {2.4}{\ignorespaces Re-projection error of poses versus corners\relax }}{10}{figure.caption.16}}
\newlabel{fig:compar}{{2.4}{10}{Re-projection error of poses versus corners\relax }{figure.caption.16}{}}
\@writefile{toc}{\contentsline {section}{\numberline {2.3}IF workspace calibration}{11}{section.2.3}}
\@writefile{lof}{\contentsline {figure}{\numberline {2.5}{\ignorespaces Setup of the \acrshort {if} workspace with the relevant frames to calibrate.\relax }}{11}{figure.caption.17}}
\newlabel{fig:overview}{{2.5}{11}{Setup of the \acrshort {if} workspace with the relevant frames to calibrate.\relax }{figure.caption.17}{}}
\@writefile{toc}{\contentsline {subsection}{\numberline {2.3.1}Robot base calibration}{12}{subsection.2.3.1}}
\newlabel{subsec:basecalib}{{2.3.1}{12}{Robot base calibration}{subsection.2.3.1}{}}
\@writefile{toc}{\contentsline {subsection}{\numberline {2.3.2}Tag calibration}{12}{subsection.2.3.2}}
\newlabel{sec:tagcalib}{{2.3.2}{12}{Tag calibration}{subsection.2.3.2}{}}
\newlabel{eq:tagcalib}{{2.8}{12}{Tag calibration}{equation.2.3.8}{}}
\@writefile{toc}{\contentsline {subsection}{\numberline {2.3.3}Camera calibration}{12}{subsection.2.3.3}}
\newlabel{subsec:camcalib}{{2.3.3}{12}{Camera calibration}{subsection.2.3.3}{}}
\@writefile{toc}{\contentsline {section}{\numberline {2.4}IF global pose estimation}{13}{section.2.4}}
\newlabel{sec:poseest}{{2.4}{13}{IF global pose estimation}{section.2.4}{}}
\@setckpt{chapters/RobotPosEst}{
\setcounter{page}{14}
\setcounter{equation}{10}
\setcounter{enumi}{0}
\setcounter{enumii}{0}
\setcounter{enumiii}{0}
\setcounter{enumiv}{0}
\setcounter{footnote}{0}
\setcounter{mpfootnote}{0}
\setcounter{part}{0}
\setcounter{chapter}{2}
\setcounter{section}{4}
\setcounter{subsection}{0}
\setcounter{subsubsection}{0}
\setcounter{paragraph}{0}
\setcounter{subparagraph}{0}
\setcounter{figure}{5}
\setcounter{table}{1}
\setcounter{Item}{0}
\setcounter{Hfootnote}{0}
\setcounter{bookmark@seq@number}{19}
\setcounter{parentequation}{0}
\setcounter{ContinuedFloat}{0}
\setcounter{AM@survey}{0}
\setcounter{subfigure}{0}
\setcounter{subtable}{0}
\setcounter{r@tfl@t}{0}
\setcounter{ALC@unique}{0}
\setcounter{ALC@line}{0}
\setcounter{ALC@rem}{0}
\setcounter{ALC@depth}{0}
\setcounter{su@anzahl}{0}
\setcounter{LT@tables}{0}
\setcounter{LT@chunks}{0}
\setcounter{section@level}{1}
}
