\relax 
\providecommand\hyper@newdestlabel[2]{}
\@writefile{toc}{\contentsline {chapter}{\numberline {6}Summary}{37}{chapter.6}}
\@writefile{lof}{\addvspace {10\p@ }}
\@writefile{lot}{\addvspace {10\p@ }}
\@writefile{toc}{\contentsline {section}{\numberline {6.1}Future work}{37}{section.6.1}}
\@writefile{toc}{\contentsline {subsection}{\numberline {6.1.1}Update of the computer model}{37}{subsection.6.1.1}}
\newlabel{sec:futurework}{{6.1.1}{37}{Update of the computer model}{subsection.6.1.1}{}}
\@writefile{toc}{\contentsline {subsection}{\numberline {6.1.2}Software adaption to new \acrshort {if} end-effector hardware}{37}{subsection.6.1.2}}
\@setckpt{chapters/summary}{
\setcounter{page}{38}
\setcounter{equation}{0}
\setcounter{enumi}{4}
\setcounter{enumii}{0}
\setcounter{enumiii}{0}
\setcounter{enumiv}{0}
\setcounter{footnote}{0}
\setcounter{mpfootnote}{0}
\setcounter{part}{0}
\setcounter{chapter}{6}
\setcounter{section}{1}
\setcounter{subsection}{2}
\setcounter{subsubsection}{0}
\setcounter{paragraph}{0}
\setcounter{subparagraph}{0}
\setcounter{figure}{0}
\setcounter{table}{0}
\setcounter{Item}{9}
\setcounter{Hfootnote}{0}
\setcounter{bookmark@seq@number}{42}
\setcounter{parentequation}{0}
\setcounter{ContinuedFloat}{0}
\setcounter{AM@survey}{0}
\setcounter{subfigure}{0}
\setcounter{subtable}{0}
\setcounter{r@tfl@t}{0}
\setcounter{ALC@unique}{0}
\setcounter{ALC@line}{0}
\setcounter{ALC@rem}{0}
\setcounter{ALC@depth}{0}
\setcounter{su@anzahl}{0}
\setcounter{LT@tables}{0}
\setcounter{LT@chunks}{0}
\setcounter{section@level}{2}
}
