\relax 
\providecommand\hyper@newdestlabel[2]{}
\citation{ceres-solver}
\@writefile{toc}{\contentsline {chapter}{\numberline {4}System Interaction}{29}{chapter.4}}
\@writefile{lof}{\addvspace {10\p@ }}
\@writefile{lot}{\addvspace {10\p@ }}
\newlabel{ch:sys}{{4}{29}{System Interaction}{chapter.4}{}}
\@writefile{toc}{\contentsline {section}{\numberline {4.1}Used 3rd party open-source software libraries}{29}{section.4.1}}
\@writefile{toc}{\contentsline {subsection}{\numberline {4.1.1}Ceres Solver}{29}{subsection.4.1.1}}
\@writefile{toc}{\contentsline {subsection}{\numberline {4.1.2}\acrlong {ros} (\acrshort {ros})}{29}{subsection.4.1.2}}
\@writefile{toc}{\contentsline {subsection}{\numberline {4.1.3}\acrlong {cv} (\acrshort {cv})}{30}{subsection.4.1.3}}
\@writefile{toc}{\contentsline {section}{\numberline {4.2}System architecture}{30}{section.4.2}}
\newlabel{sec:swstructure}{{4.2}{30}{System architecture}{section.4.2}{}}
\@writefile{lof}{\contentsline {figure}{\numberline {4.1}{\ignorespaces System architecture of the relevant components\relax }}{31}{figure.caption.40}}
\newlabel{fig:softwareoverview}{{4.1}{31}{System architecture of the relevant components\relax }{figure.caption.40}{}}
\@setckpt{chapters/SystemArch}{
\setcounter{page}{32}
\setcounter{equation}{1}
\setcounter{enumi}{4}
\setcounter{enumii}{0}
\setcounter{enumiii}{0}
\setcounter{enumiv}{0}
\setcounter{footnote}{0}
\setcounter{mpfootnote}{0}
\setcounter{part}{0}
\setcounter{chapter}{4}
\setcounter{section}{2}
\setcounter{subsection}{0}
\setcounter{subsubsection}{0}
\setcounter{paragraph}{0}
\setcounter{subparagraph}{0}
\setcounter{figure}{1}
\setcounter{table}{0}
\setcounter{Item}{9}
\setcounter{Hfootnote}{0}
\setcounter{bookmark@seq@number}{33}
\setcounter{parentequation}{0}
\setcounter{ContinuedFloat}{0}
\setcounter{AM@survey}{0}
\setcounter{subfigure}{0}
\setcounter{subtable}{0}
\setcounter{r@tfl@t}{0}
\setcounter{ALC@unique}{0}
\setcounter{ALC@line}{0}
\setcounter{ALC@rem}{0}
\setcounter{ALC@depth}{0}
\setcounter{su@anzahl}{0}
\setcounter{LT@tables}{0}
\setcounter{LT@chunks}{0}
\setcounter{section@level}{1}
}
