\relax 
\providecommand\hyper@newdestlabel[2]{}
\@writefile{toc}{\contentsline {chapter}{\numberline {5}Hardware experiments}{33}{chapter.5}}
\@writefile{lof}{\addvspace {10\p@ }}
\@writefile{lot}{\addvspace {10\p@ }}
\newlabel{ch:hw}{{5}{33}{Hardware experiments}{chapter.5}{}}
\@writefile{toc}{\contentsline {section}{\numberline {5.1}Workspace calibration tuning}{33}{section.5.1}}
\@writefile{toc}{\contentsline {section}{\numberline {5.2}Robot pose estimation tests}{34}{section.5.2}}
\@writefile{lot}{\contentsline {table}{\numberline {5.1}{\ignorespaces Robot pose estimation test cases and results}}{34}{table.caption.41}}
\newlabel{tab:poseesttest}{{5.1}{34}{Robot pose estimation test cases and results}{table.caption.41}{}}
\@writefile{lof}{\contentsline {figure}{\numberline {5.1}{\ignorespaces Pose difference of $\mathaccentV {tilde}07E{T}_{WE}$ and $\mathaccentV {hat}05E{T}_{WE}$ at different end-effector locations\relax }}{34}{figure.caption.42}}
\newlabel{fig:posediffest}{{5.1}{34}{Pose difference of $\tilde {T}_{WE}$ and $\hat {T}_{WE}$ at different end-effector locations\relax }{figure.caption.42}{}}
\@writefile{toc}{\contentsline {section}{\numberline {5.3}Mesh detection tests}{35}{section.5.3}}
\@writefile{lot}{\contentsline {table}{\numberline {5.2}{\ignorespaces Mesh detection test cases and results}}{35}{table.caption.43}}
\newlabel{tab:meshdetectiontest}{{5.2}{35}{Mesh detection test cases and results}{table.caption.43}{}}
\@writefile{lof}{\contentsline {figure}{\numberline {5.2}{\ignorespaces Pose difference of expected wire versus measured wire at different mesh locations\relax }}{35}{figure.caption.44}}
\newlabel{fig:wiredect}{{5.2}{35}{Pose difference of expected wire versus measured wire at different mesh locations\relax }{figure.caption.44}{}}
\@writefile{toc}{\contentsline {section}{\numberline {5.4}System tests}{36}{section.5.4}}
\@writefile{lot}{\contentsline {table}{\numberline {5.3}{\ignorespaces System test cases and results}}{36}{table.caption.45}}
\newlabel{tab:systest}{{5.3}{36}{System test cases and results}{table.caption.45}{}}
\@writefile{lof}{\contentsline {figure}{\numberline {5.3}{\ignorespaces Tool reattachment and mesh detection at every mesh node while building\relax }}{36}{figure.caption.46}}
\newlabel{fig:systest}{{5.3}{36}{Tool reattachment and mesh detection at every mesh node while building\relax }{figure.caption.46}{}}
\@setckpt{chapters/testing}{
\setcounter{page}{37}
\setcounter{equation}{0}
\setcounter{enumi}{4}
\setcounter{enumii}{0}
\setcounter{enumiii}{0}
\setcounter{enumiv}{0}
\setcounter{footnote}{0}
\setcounter{mpfootnote}{0}
\setcounter{part}{0}
\setcounter{chapter}{5}
\setcounter{section}{4}
\setcounter{subsection}{0}
\setcounter{subsubsection}{0}
\setcounter{paragraph}{0}
\setcounter{subparagraph}{0}
\setcounter{figure}{3}
\setcounter{table}{3}
\setcounter{Item}{9}
\setcounter{Hfootnote}{0}
\setcounter{bookmark@seq@number}{38}
\setcounter{parentequation}{0}
\setcounter{ContinuedFloat}{0}
\setcounter{AM@survey}{0}
\setcounter{subfigure}{0}
\setcounter{subtable}{0}
\setcounter{r@tfl@t}{0}
\setcounter{ALC@unique}{0}
\setcounter{ALC@line}{0}
\setcounter{ALC@rem}{0}
\setcounter{ALC@depth}{0}
\setcounter{su@anzahl}{0}
\setcounter{LT@tables}{0}
\setcounter{LT@chunks}{0}
\setcounter{section@level}{1}
}
