\relax 
\providecommand\hyper@newdestlabel[2]{}
\@writefile{toc}{\contentsline {chapter}{\numberline {3}Detection of the spatial mesh}{15}{chapter.3}}
\@writefile{lof}{\addvspace {10\p@ }}
\@writefile{lot}{\addvspace {10\p@ }}
\newlabel{ch:det}{{3}{15}{Detection of the spatial mesh}{chapter.3}{}}
\@writefile{toc}{\contentsline {section}{\numberline {3.1}Definition of the algorithm}{15}{section.3.1}}
\citation{opencv}
\citation{camera}
\@writefile{lof}{\contentsline {figure}{\numberline {3.1}{\ignorespaces The high-level steps of the mesh detection algorithm\relax }}{16}{figure.caption.18}}
\newlabel{fig:wiredet2}{{3.1}{16}{The high-level steps of the mesh detection algorithm\relax }{figure.caption.18}{}}
\@writefile{toc}{\contentsline {subsection}{\numberline {3.1.1}Stereo rectification}{16}{subsection.3.1.1}}
\newlabel{subsec:stereorect}{{3.1.1}{16}{Stereo rectification}{subsection.3.1.1}{}}
\@writefile{lof}{\contentsline {figure}{\numberline {3.2}{\ignorespaces Stereo rectification explained while \acrshort {if} is building the spatial mesh.\relax }}{17}{figure.caption.19}}
\newlabel{fig:stereorect}{{3.2}{17}{Stereo rectification explained while \acrshort {if} is building the spatial mesh.\relax }{figure.caption.19}{}}
\@writefile{toc}{\contentsline {subsection}{\numberline {3.1.2}Feature detection and 2D line filtering}{17}{subsection.3.1.2}}
\newlabel{subsec:feat}{{3.1.2}{17}{Feature detection and 2D line filtering}{subsection.3.1.2}{}}
\citation{canny}
\citation{hough}
\@writefile{lof}{\contentsline {figure}{\numberline {3.3}{\ignorespaces Feature (lines) detection and the 2D filtering illustrated step by step\relax }}{18}{figure.caption.20}}
\newlabel{fig:featuredet}{{3.3}{18}{Feature (lines) detection and the 2D filtering illustrated step by step\relax }{figure.caption.20}{}}
\@writefile{toc}{\contentsline {subsection}{\numberline {3.1.3}Calculation of a wire in 3D using a corresponding line pair}{19}{subsection.3.1.3}}
\newlabel{subsec:corr}{{3.1.3}{19}{Calculation of a wire in 3D using a corresponding line pair}{subsection.3.1.3}{}}
\newlabel{eq:3dcalc}{{3.1}{19}{Calculation of a wire in 3D using a corresponding line pair}{equation.3.1.1}{}}
\@writefile{toc}{\contentsline {subsection}{\numberline {3.1.4}Finding the best-fit corresponding line pair in 3D}{19}{subsection.3.1.4}}
\newlabel{subsec:3dmatching}{{3.1.4}{19}{Finding the best-fit corresponding line pair in 3D}{subsection.3.1.4}{}}
\citation{hough}
\@writefile{lof}{\contentsline {figure}{\numberline {3.4}{\ignorespaces Point correspondence search using a line pair\relax }}{20}{figure.caption.21}}
\newlabel{fig:3dcalc}{{3.4}{20}{Point correspondence search using a line pair\relax }{figure.caption.21}{}}
\newlabel{tab:notations2}{{\caption@xref {tab:notations2}{ on input line 99}}{20}{Finding the best-fit corresponding line pair in 3D}{table.caption.22}{}}
\@writefile{lot}{\contentsline {table}{\numberline {3.1}{\ignorespaces Notation used for the definition of the cost function}}{20}{table.caption.22}}
\@writefile{toc}{\contentsline {subsubsection}{\nonumberline Closest distance from expected wire to measured wire}{21}{section*.23}}
\@writefile{lof}{\contentsline {figure}{\numberline {3.5}{\ignorespaces For $p1$ the closest distance lies within the line segment, for $p2$ the closest distance is at the end point of the line segment. \relax }}{21}{figure.caption.24}}
\newlabel{fig:pointtowire}{{3.5}{21}{For $p1$ the closest distance lies within the line segment, for $p2$ the closest distance is at the end point of the line segment. \relax }{figure.caption.24}{}}
\@writefile{toc}{\contentsline {subsubsection}{\nonumberline Angle between expected and measured wire}{21}{section*.25}}
\@writefile{toc}{\contentsline {subsubsection}{\nonumberline Distance from continuous wire to discrete wire}{21}{section*.26}}
\@writefile{lof}{\contentsline {figure}{\numberline {3.6}{\ignorespaces For the calculation of the distances continuous wire 1 is treated as a infinite line whereas wire 2 is treated as a line segment. \relax }}{22}{figure.caption.27}}
\newlabel{fig:wiretowire}{{3.6}{22}{For the calculation of the distances continuous wire 1 is treated as a infinite line whereas wire 2 is treated as a line segment. \relax }{figure.caption.27}{}}
\@writefile{toc}{\contentsline {subsubsection}{\nonumberline Definition of the cost function}{22}{section*.28}}
\@writefile{lof}{\contentsline {figure}{\numberline {3.7}{\ignorespaces Result of using the cost function to find the best match for the continuous wire $\mathaccentV {tilde}07E{W}_{c}$ and discrete wire $\mathaccentV {tilde}07E{W}_{d}$\relax }}{23}{figure.caption.29}}
\newlabel{fig:costfunction}{{3.7}{23}{Result of using the cost function to find the best match for the continuous wire $\tilde {W}_{c}$ and discrete wire $\tilde {W}_{d}$\relax }{figure.caption.29}{}}
\@writefile{toc}{\contentsline {subsection}{\numberline {3.1.5}Algorithm discussion}{23}{subsection.3.1.5}}
\newlabel{sec:discussion}{{3.1.5}{23}{Algorithm discussion}{subsection.3.1.5}{}}
\@writefile{toc}{\contentsline {subsubsection}{\nonumberline Complexity}{23}{section*.30}}
\@writefile{toc}{\contentsline {subsubsection}{\nonumberline Worst case}{23}{section*.31}}
\newlabel{subsubsec:worstcase}{{3.1.5}{23}{Worst case}{section*.31}{}}
\@writefile{toc}{\contentsline {subsubsection}{\nonumberline Centering lines}{23}{section*.33}}
\@writefile{lof}{\contentsline {figure}{\numberline {3.8}{\ignorespaces Illustration of the wire detection worst case \relax }}{24}{figure.caption.32}}
\newlabel{fig:worstcase}{{3.8}{24}{Illustration of the wire detection worst case \relax }{figure.caption.32}{}}
\@writefile{toc}{\contentsline {subsubsection}{\nonumberline Importance of the line detector}{24}{section*.34}}
\@writefile{toc}{\contentsline {subsubsection}{\nonumberline Failure handling}{24}{section*.36}}
\@writefile{lof}{\contentsline {figure}{\numberline {3.9}{\ignorespaces Contrast is insufficient because of bad lighting conditions due to direct sun light radiation. Lines of the correct wires are not found and therefore the matching step fails.\relax }}{25}{figure.caption.35}}
\newlabel{fig:sunlight}{{3.9}{25}{Contrast is insufficient because of bad lighting conditions due to direct sun light radiation. Lines of the correct wires are not found and therefore the matching step fails.\relax }{figure.caption.35}{}}
\@writefile{toc}{\contentsline {subsubsection}{\nonumberline Other approaches}{25}{section*.37}}
\@writefile{toc}{\contentsline {section}{\numberline {3.2}Interface to the architecture computer}{26}{section.3.2}}
\newlabel{sec:archif}{{3.2}{26}{Interface to the architecture computer}{section.3.2}{}}
\@writefile{lof}{\contentsline {figure}{\numberline {3.10}{\ignorespaces Interface to the architecture computer\relax }}{26}{figure.caption.38}}
\newlabel{fig:interface}{{3.10}{26}{Interface to the architecture computer\relax }{figure.caption.38}{}}
\@writefile{lof}{\contentsline {figure}{\numberline {3.11}{\ignorespaces definition of the mesh \acrshort {cf}\relax }}{26}{figure.caption.39}}
\newlabel{fig:meshpose}{{3.11}{26}{definition of the mesh \acrshort {cf}\relax }{figure.caption.39}{}}
\newlabel{eq:mesh}{{3.4}{26}{Interface to the architecture computer}{equation.3.2.4}{}}
\@setckpt{chapters/Wiredetection}{
\setcounter{page}{28}
\setcounter{equation}{4}
\setcounter{enumi}{4}
\setcounter{enumii}{0}
\setcounter{enumiii}{0}
\setcounter{enumiv}{0}
\setcounter{footnote}{0}
\setcounter{mpfootnote}{0}
\setcounter{part}{0}
\setcounter{chapter}{3}
\setcounter{section}{2}
\setcounter{subsection}{0}
\setcounter{subsubsection}{0}
\setcounter{paragraph}{0}
\setcounter{subparagraph}{0}
\setcounter{figure}{11}
\setcounter{table}{1}
\setcounter{Item}{9}
\setcounter{Hfootnote}{0}
\setcounter{bookmark@seq@number}{27}
\setcounter{parentequation}{0}
\setcounter{ContinuedFloat}{0}
\setcounter{AM@survey}{0}
\setcounter{subfigure}{0}
\setcounter{subtable}{0}
\setcounter{r@tfl@t}{0}
\setcounter{ALC@unique}{0}
\setcounter{ALC@line}{0}
\setcounter{ALC@rem}{0}
\setcounter{ALC@depth}{0}
\setcounter{su@anzahl}{0}
\setcounter{LT@tables}{0}
\setcounter{LT@chunks}{0}
\setcounter{section@level}{1}
}
